{
    "token": "1147428421:AAHqxE_B09bQDFb0w79ccpYSwPideXW-Vjw",
    "channel_id": "-1001430249749",
    "channel_link": "https://t.me/joinchat/AAAAAFU_4RWDi8nYL4sUiA",
    "admin_link": "@shoxruxmirzoo",
    "token2": "907014878:AAFib8KfrQU9vQfVjxLxBsd_6SEZwdbTUrM"
}